{
  "translations": [
    {
      "name": "fs_to_fs",
      "intensity": 1,
      "period": 5,
      "restart": "permanent",
      "processor": {
        "module": "../sample/my_processor.js",
        "args": ["hello", "world"]
      },
      "input": {
        "driver": "Filesystem",
        "args": [
          "./*.json",
          {
            "ignored": ".eslintrc.json"
          }
        ]
      },
      "output": {
        "driver": "Filesystem",
        "args": ["/tmp", "[name:basename].[name:extname]"]
      }
    }
  ],
  "log": {
    "file": "pouch.log",
    "level": "debug",
    "stdout": true
  }
}
