{
  "translations": [],
  "drivers": {
    "data": "JSONToJSON",
    "input": "Filesystem",
    "output": "Filesystem"
  },
  "log": {
    "file": "pouch.log",
    "level": "error",
    "stdout": false
  }
}
